…
``` r
arm_df %>% 
  unnest() %>% 
  mutate(
    week = as.numeric(week),
    id = str_remove(name, ".csv"),
    arm_type = case_when(str_detect(name, "con") ~ "control",
                         str_detect(name, "exp") ~ "experimental")
  ) %>% 
  select(-name) %>% 
  relocate(id, arm_type)
```

    ## # A tibble: 160 x 4
    ##    id     arm_type  week observation
    ##    <chr>  <chr>    <dbl>       <dbl>
    ##  1 con_01 control      1        0.2 
    ##  2 con_01 control      2       -1.31
    ##  3 con_01 control      3        0.66
    ##  4 con_01 control      4        1.96
    ##  5 con_01 control      5        0.23
    ##  6 con_01 control      6        1.09
    ##  7 con_01 control      7        0.05
    ##  8 con_01 control      8        1.94
    ##  9 con_02 control      1        1.13
    ## 10 con_02 control      2       -0.88
    ## # ... with 150 more rows
…
